…
## Learning Assessment, pivot\_longer

``` r
litters_data %>% 
  select(litter_number, ends_with("weight")) %>% 
   pivot_longer(
    gd0_weight:gd18_weight,
    names_to = "gd", 
    values_to = "weight") %>% 
  mutate(gd = recode(gd, "gd0_weight" = 0, "gd18_weight" = 18))
```

    ## # A tibble: 98 x 3
    ##   litter_number      gd weight
    ##   <chr>           <dbl>  <dbl>
    ## 1 #1/2/95/2           0     27
    ## 2 #1/2/95/2          18     42
    ## 3 #1/5/3/83/3-3/2     0     NA
    ## 4 #1/5/3/83/3-3/2    18     NA
    ## 5 #1/6/2/2/95-2       0     NA
    ## # … with 93 more rows
…
